loading FloodClaims80s.xlsx
(2, 'FloodClaims80s.xlsx', 1980, '2021-09-08T00:26:59.039Z', '6203675e5cf8b4def09c1ac7')
(3, 'FloodClaims80s.xlsx', 1981, '2021-11-25T01:59:17.239Z', '620367405cf8b4def09afead')
(4, 'FloodClaims80s.xlsx', 1982, '2021-07-25T01:39:04.381Z', '6203675e5cf8b4def09c1c33')
(7, 'FloodClaims80s.xlsx', 1983, '2021-09-02T02:27:19.601Z', '620367465cf8b4def09b8d6d')
(9, 'FloodClaims80s.xlsx', 1984, '2021-09-23T03:18:50.828Z', '620367805cf8b4def09f077d')
(11, 'FloodClaims80s.xlsx', 1985, '2021-09-02T02:27:19.601Z', '620367635cf8b4def09c78ae')
(13, 'FloodClaims80s.xlsx', 1986, '2021-09-02T02:27:19.601Z', '620368035cf8b4def0a602ce')
(14, 'FloodClaims80s.xlsx', 1987, '2021-12-19T00:10:46.863Z', '620367f85cf8b4def0a50a92')
(16, 'FloodClaims80s.xlsx', 1988, '2021-09-02T02:27:19.601Z', '620367285cf8b4def098fa50')
(18, 'FloodClaims80s.xlsx', 1989, '2021-09-02T02:27:19.601Z', '620367eb5cf8b4def0a3d5b9')
loading FloodClaims90s.xlsx
(34, 'FloodClaims90s.xlsx', 1990, '2021-07-25T01:39:04.381Z', '620367f85cf8b4def0a501a7')
(37, 'FloodClaims90s.xlsx', 1991, '2021-11-21T00:34:48.052Z', '620367eb5cf8b4def0a3dddd')
(43, 'FloodClaims90s.xlsx', 1992, '2021-07-25T01:39:04.381Z', '620367d95cf8b4def0a23f8f')
(55, 'FloodClaims90s.xlsx', 1993, '2021-09-30T01:46:33.952Z', '6203676f5cf8b4def09d8c9d')
(65, 'FloodClaims90s.xlsx', 1994, '2021-09-02T02:27:19.601Z', '620367835cf8b4def09f4f13')
(75, 'FloodClaims90s.xlsx', 1995, '2021-09-02T02:27:19.601Z', '620367d65cf8b4def0a20284')
(94, 'FloodClaims90s.xlsx', 1996, '2021-07-25T01:39:04.381Z', '620368055cf8b4def0a62346')
(112, 'FloodClaims90s.xlsx', 1997, '2021-11-21T00:34:48.052Z', '620368015cf8b4def0a5c25f')
(131, 'FloodClaims90s.xlsx', 1998, '2021-11-21T00:34:48.052Z', '620368025cf8b4def0a5ea09')
(155, 'FloodClaims90s.xlsx', 1999, '2021-09-02T02:27:19.601Z', '620367305cf8b4def099ad57')
loading FloodClaims00s.xlsx
(190, 'FloodClaims00s.xlsx', 2000, '2021-11-25T01:59:17.239Z', '620367d75cf8b4def0a2111e')
(196, 'FloodClaims00s.xlsx', 2001, '2021-09-23T03:18:50.828Z', '6203676d5cf8b4def09d63b1')
(215, 'FloodClaims00s.xlsx', 2002, '2021-09-30T01:46:33.952Z', '620368045cf8b4def0a60b68')
(229, 'FloodClaims00s.xlsx', 2003, '2021-09-02T02:27:19.601Z', '620367f85cf8b4def0a4f7be')
(248, 'FloodClaims00s.xlsx', 2004, '2021-09-23T03:18:50.828Z', '620368065cf8b4def0a6340a')
(275, 'FloodClaims00s.xlsx', 2005, '2021-09-02T02:27:19.601Z', '620368055cf8b4def0a628b3')
(354, 'FloodClaims00s.xlsx', 2006, '2021-09-02T02:27:19.601Z', '620367f55cf8b4def0a4bff2')
(367, 'FloodClaims00s.xlsx', 2007, '2021-07-25T01:39:04.381Z', '620368045cf8b4def0a605cc')
(384, 'FloodClaims00s.xlsx', 2008, '2021-07-25T01:39:04.381Z', '620368045cf8b4def0a604cc')
(419, 'FloodClaims00s.xlsx', 2009, '2021-11-21T00:34:48.052Z', '620367fb5cf8b4def0a54f2f')
loading FloodClaims10s.xlsx
(453, 'FloodClaims10s.xlsx', 2010, '2021-11-04T01:43:43.707Z', '620367df5cf8b4def0a2c9f2')
(464, 'FloodClaims10s.xlsx', 2011, '2021-09-02T02:27:19.601Z', '620367d25cf8b4def0a1a3f6')
(494, 'FloodClaims10s.xlsx', 2012, '2021-09-02T02:27:19.601Z', '620367fc5cf8b4def0a551b6')
(547, 'FloodClaims10s.xlsx', 2013, '2021-09-02T02:27:19.601Z', '6203676e5cf8b4def09d6c11')
(557, 'FloodClaims10s.xlsx', 2014, '2021-10-07T00:40:17.031Z', '620367815cf8b4def09f29fd')
(563, 'FloodClaims10s.xlsx', 2015, '2021-11-18T04:57:09.565Z', '620368015cf8b4def0a5d08c')
(577, 'FloodClaims10s.xlsx', 2016, '2021-09-02T02:27:19.601Z', '620368005cf8b4def0a5c025')
(606, 'FloodClaims10s.xlsx', 2017, '2021-09-02T02:27:19.601Z', '620367ca5cf8b4def0a0e997')
(819, 'FloodClaims10s.xlsx', 2018, '2021-09-02T02:27:19.601Z', '620367d45cf8b4def0a1d2cb')
(935, 'FloodClaims10s.xlsx', 2019, '2021-10-07T00:40:17.031Z', '620367885cf8b4def09fbda1')
(951, 'FloodClaims10s.xlsx', 2020, '2021-09-02T02:27:19.601Z', '620367485cf8b4def09bb9d0')
(962, 'FloodClaims10s.xlsx', 2021, '2021-10-13T23:03:45.965Z', '620367b75cf8b4def09ffaf1')
