﻿Year,Nonfinancial corporate business; nonfinancial assets
1945,217386
1946,245008
1947,286835
1948,314618
1949,320170
1950,350144
1951,390576
1952,408765
1953,426950
1954,435961
1955,473997
1956,525915
1957,557989
1958,570292
1959,595067
1960,609666
1961,626539
1962,649377
1963,672864
1964,709814
1965,761292
1966,832789
1967,898434
1968,980225
1969,1083799
1970,1182929
1971,1288572
1972,1403407
1973,1596516
1974,1943129
1975,2131816
1976,2354268
1977,2618158
1978,2978655
1979,3439598
1980,3925220
1981,4403676
1982,4638513
1983,4792825
1984,5095532
1985,5329625
1986,5511206
1987,5802585
1988,6178147
1989,6491136
1990,6645566
1991,6488682
1992,6335594
1993,6467758
1994,6870184
1995,7245646
1996,7551700
1997,8523777
1998,9280402
1999,9800067
2000,10776169
2001,10786497
2002,11162310
2003,11460747
2004,13059849
2005,14296050
2006,15786376
2007,17298327
2008,16525944
2009,14040723
2010,14851385
2011,15654992
2012,16441743
2013,17995558
2014,19115716
2015,20226533
2016,21160123
2017,22418191
2018,23182685
2019,24757771
2020,25898141
2021,28635136
